{
  "configVersion": 2,
  "packages": [
    {
      "name": "archive",
      "rootUri": "file:///C:/Users/AppVesto/AppData/Local/Pub/Cache/hosted/pub.dartlang.org/archive-2.0.13",
      "packageUri": "lib/",
      "languageVersion": "2.0"
    },
    {
      "name": "args",
      "rootUri": "file:///C:/Users/AppVesto/AppData/Local/Pub/Cache/hosted/pub.dartlang.org/args-1.6.0",
      "packageUri": "lib/",
      "languageVersion": "2.3"
    },
    {
      "name": "charcode",
      "rootUri": "file:///C:/Users/AppVesto/AppData/Local/Pub/Cache/hosted/pub.dartlang.org/charcode-1.2.0",
      "packageUri": "lib/",
      "languageVersion": "2.12"
    },
    {
      "name": "collection",
      "rootUri": "file:///C:/Users/AppVesto/AppData/Local/Pub/Cache/hosted/pub.dartlang.org/collection-1.15.0",
      "packageUri": "lib/",
      "languageVersion": "2.12"
    },
    {
      "name": "convert",
      "rootUri": "file:///C:/Users/AppVesto/AppData/Local/Pub/Cache/hosted/pub.dartlang.org/convert-2.1.1",
      "packageUri": "lib/",
      "languageVersion": "1.17"
    },
    {
      "name": "crypto",
      "rootUri": "file:///C:/Users/AppVesto/AppData/Local/Pub/Cache/hosted/pub.dartlang.org/crypto-2.1.5",
      "packageUri": "lib/",
      "languageVersion": "2.3"
    },
    {
      "name": "excel",
      "rootUri": "file:///C:/Users/AppVesto/AppData/Local/Pub/Cache/hosted/pub.dartlang.org/excel-1.1.5",
      "packageUri": "lib/",
      "languageVersion": "2.7"
    },
    {
      "name": "meta",
      "rootUri": "file:///C:/Users/AppVesto/AppData/Local/Pub/Cache/hosted/pub.dartlang.org/meta-1.3.0",
      "packageUri": "lib/",
      "languageVersion": "2.12"
    },
    {
      "name": "path",
      "rootUri": "file:///C:/Users/AppVesto/AppData/Local/Pub/Cache/hosted/pub.dartlang.org/path-1.8.0",
      "packageUri": "lib/",
      "languageVersion": "2.12"
    },
    {
      "name": "petitparser",
      "rootUri": "file:///C:/Users/AppVesto/AppData/Local/Pub/Cache/hosted/pub.dartlang.org/petitparser-3.1.0",
      "packageUri": "lib/",
      "languageVersion": "2.7"
    },
    {
      "name": "typed_data",
      "rootUri": "file:///C:/Users/AppVesto/AppData/Local/Pub/Cache/hosted/pub.dartlang.org/typed_data-1.3.0",
      "packageUri": "lib/",
      "languageVersion": "2.12"
    },
    {
      "name": "xml",
      "rootUri": "file:///C:/Users/AppVesto/AppData/Local/Pub/Cache/hosted/pub.dartlang.org/xml-4.5.1",
      "packageUri": "lib/",
      "languageVersion": "2.7"
    },
    {
      "name": "frebo_dictionary_adapter",
      "rootUri": "../",
      "packageUri": "lib/",
      "languageVersion": "2.10"
    }
  ],
  "generated": "2021-04-12T13:48:16.639852Z",
  "generator": "pub",
  "generatorVersion": "2.12.2"
}
